--
0.2193100899326566
0.0012710541868258792
0.002629487717550202
4.977749467545749E-4
-4.0950282334157517E-7
-1.3786418865982653E-5
-3.957585603799437E-7
--
0.22222222222788157
0.012345679012352697
0.005486968410499034
2.1947873026952855E-4
-2.4085456857834493E-7
-2.438652558551009E-5
1.368902029512063E-14
--
0.28384890035395594
0.006201512519313872
0.021419215361594517
0.004440231344927682
3.4786389379040874E-5
2.936863190345873E-4
-2.5787390183320294E-5
--
0.1974434836202747
0.00584161788396695
4.968441953473437E-4
4.059429162340232E-4
1.4860710544066162E-7
2.6443294113498737E-5
-1.0560499917420415E-7
--
0.21006072115916594
0.009278600808604022
1.9393508946648658E-4
1.911687811020626E-4
2.5462843144150615E-8
1.8108119516293675E-5
2.6580892063510398E-8
--
0.20668735253052314
0.008199692835378717
1.3452273554028489E-4
1.3354047989592774E-4
1.2392763238552603E-8
1.2010212251076251E-5
1.2914202198633356E-8
--
0.22809356423593596
0.002340332661501609
0.0028598274172226775
4.7978334353900726E-4
-5.61583678464304E-7
-1.1204786923049777E-5
2.167329012197304E-8
--
0.20716552715308478
0.008650746466926831
1.4425198384519655E-4
1.3140549494784206E-4
1.2575602883227532E-8
1.2161208611736258E-5
1.3006404121210895E-8
--
0.2999853829298104
0.021779973476306776
0.03881125143773897
0.03583128895675011
0.0013353495632929774
0.004881394302538734
-4.7751739618416165E-5
--
0.3105627291100608
0.026045250115332354
0.04845819660060705
0.04858425678984083
0.002357365575546665
0.0071402311162964555
-9.031183919232331E-7
--
0.2067170895457806
0.008401249379683657
1.3581512391439823E-4
1.361042361146598E-4
1.2704885914619992E-8
1.236750295047726E-5
1.3453957753847098E-8
--
0.4369708577758852
0.08809522878858583
0.1465002027159172
0.130439973861453
0.018031327442853733
0.03743457227343734
-1.0573980514003503E-4
--
0.4149895544074049
0.07293433445584913
0.14147445039992546
0.12889681824967048
0.01740612988261076
0.03353800948431219
1.0800583173330852E-5
--
0.4221109360640468
0.07743698119496842
0.14652744579242388
0.13295733365511103
0.018557861114336723
0.03572548468944638
-4.89873091005788E-6
--
0.4075802690079784
0.06891395477398213
0.1364158372342794
0.1249935158018536
0.016321599710854416
0.03162521414585398
3.322607514215023E-5
--
0.4169185107255554
0.07363815727140091
0.1448564244446502
0.1323283468988316
0.018320924187760664
0.03463302879026306
3.58977726568014E-5
--
0.283531254763947
0.018390907113853605
0.03097745980199095
0.032632023352220915
0.0010374701087481637
0.0039000858677795637
-8.123461237290403E-6
--
0.4059083928298537
0.06776501049871753
0.13451492102039342
0.12326027016145713
0.015871541689070345
0.03085428398709713
3.025811676875094E-5
--
0.4194450450677632
0.07539491687066457
0.14389474115171075
0.13069007847808978
0.017921996090631432
0.0345754334812917
4.037071418487581E-6
--
0.42145386035840593
0.07668006585702308
0.14549142015408795
0.13189788860845497
0.018271552757003776
0.035197061861890214
-9.492024340591876E-7
--
0.42345120170226186
0.07854621584497556
0.14334725318693012
0.12937861763853636
0.01761926850279774
0.03493736651030817
-2.863765022981246E-5
--
0.2070578429855638
0.008774582497105912
1.4679303741590332E-4
1.343927458645931E-4
1.2905640093156885E-8
1.2495508411752874E-5
1.3775285724621659E-8
--
0.29276470678045613
0.05806783177709002
2.455910925011716E-5
3.115297126919729E-6
-1.156836384684859E-11
-4.4832658092514063E-7
-2.4671803334519712E-11
--
0.22222222226426114
0.012345679012390592
0.005486969810170033
2.1947900488822678E-4
-2.4085505134510996E-7
-2.4386556098717835E-5
-4.725797407339008E-13
--
0.2781434687037325
0.04751163389004756
6.19981638802566E-4
3.2334366500319574E-5
-4.424759180001864E-9
-7.0268674483136394E-6
-1.174976962592176E-9
--
0.2777479749267595
0.04730201769843376
6.039290482587389E-4
3.200985697031281E-5
-4.219810913767025E-9
-6.959351364084024E-6
-1.414579754096167E-9
--
0.27853519376068053
0.047720001506760715
6.286313044737899E-4
3.330843858581197E-5
-4.726912531583862E-9
-7.226077661612406E-6
-9.417071640332407E-10
--
0.29266437524192235
0.02130487438775208
0.034409999112581455
0.03530669637278622
0.0012304926069803795
0.004590856835055164
-1.8475049227795778E-5
--
0.2781932869263279
0.04774634333927922
6.07857082486396E-4
3.361346584870662E-5
-4.576898079827918E-9
-7.3435066581979265E-6
-1.462058308187283E-9
--
0.2773353504446914
0.04728920279695946
5.726146281673276E-4
3.1839201664295395E-5
-3.916830775934697E-9
-6.910426122677879E-6
-1.7721275043516359E-9
--
0.2775220387573505
0.046263097456952916
5.865022627939634E-4
1.7953269348436454E-5
-1.8120869761387195E-9
-3.7177126178715E-6
-3.320404650663673E-10
--
0.2783549153151956
0.047499566241229474
6.227409613075186E-4
3.325203551071032E-5
-4.434080244349983E-9
-7.245793830218467E-6
-1.798628758302467E-9
--
0.2788813009164023
0.04849881664518872
6.262689803794733E-4
3.939792684215889E-5
-6.073443264920804E-9
-8.663421999854621E-6
-1.1881583699394931E-9
--
0.29280833345684393
0.02072336715810766
0.0366208210989582
0.03777015773627646
0.0014047100204967462
0.004862010221014419
2.2480910173985295E-6
--
0.0
0.0
0.0
0.0
0.0
0.0
0.0
--
0.2758419761425333
0.006373111160955739
0.0190282626453313
0.005052408737728467
4.366289865884192E-5
3.8755158433960565E-4
-2.3402229797491146E-5
--
0.23834035525823694
0.019899427378122118
2.2096701290409386E-4
2.1323999292981817E-5
1.3074462840361886E-9
-9.139751097358245E-7
-6.581385401506605E-10
--
0.21051596179251847
0.00958190864932551
2.288866124063068E-4
1.73421587799991E-4
2.7168106810059217E-8
1.693794550061878E-5
2.1346879772187932E-8
--
0.30361363071984415
0.02458747201041915
0.0417874861998297
0.042153127632716114
0.0017690366748635863
0.005973351773732561
-2.1134787195357962E-5
--
0.33585275526086134
0.03519192745320225
0.0587110939066018
0.05090740306915067
0.002780855090166589
0.009049848072064342
-1.1218959894033565E-4
--
0.2947733490048613
0.021286704753727403
0.03766500010761781
0.03865259673389229
0.0014748126998681296
0.005045744894618044
1.1470732623125113E-6
--
0.2249542991603259
0.001344151648039642
0.003029265511405923
0.001656248846428832
3.70879153339722E-6
-1.2456208182511646E-5
-8.886480664252685E-8
--
0.2233615847547113
0.001551744490169657
0.0026621305921565065
0.0014414152845110867
2.8229110524106246E-6
-1.6700236261807935E-5
-6.093867945481001E-8
--
0.2077310659678547
0.008953456669478022
1.594163513269933E-4
1.3203365281571234E-4
1.4003869348272377E-8
1.2462437107891927E-5
1.3069990466964381E-8
--
0.29492954030885915
0.02144298791514502
0.03756553564650697
0.038616562533849354
0.0014708043870298821
0.005065813730969062
1.7136310996539563E-6
--
0.29177825414934344
0.020019085811819454
0.037723493194999846
0.039120155663218734
0.0015028084205830601
0.0049536315076718325
5.76206900566791E-6
--
0.28709452006073877
0.007282642592082863
0.02278144897514057
0.005023576052025493
4.6199696943912307E-5
3.7297896990723855E-4
-2.7454355008939372E-5
--
0.29701645580150804
0.022212911115827856
0.03841105389607715
0.03916185773961416
0.0015188759041966883
0.005241939620342063
-2.817818313079635E-6
--
0.21054947602836904
0.009931537104829372
2.1567879238002557E-4
1.5959456448408124E-4
2.3925234947951307E-8
1.5890637121408035E-5
1.7444333812500464E-8
--
0.2816561156344976
0.018008668061430554
0.029598119692687316
0.031287191550926685
9.520454005609301E-4
0.003697590164333839
-1.0066030271406673E-5
--
0.4128329866865822
0.0727914062036262
0.1214889772225595
0.1026163580832052
0.011449483349551717
0.02648855161828808
-4.309683907387724E-4
--
0.382648299413351
0.05661419038319608
0.09627169983059089
0.08216129828249587
0.007301123654688963
0.018579420305912087
-2.976316961693596E-4
--
0.27642054336155036
0.04557179255501859
5.321012428191241E-4
1.5181313200156357E-5
-1.019691855677998E-9
-3.2280163318362565E-6
-9.066325117005028E-10
--
0.4162474641096322
0.07447346803562754
0.12521340436835676
0.1056382286117109
0.012140263751941001
0.02761784222739117
-4.726978973578471E-4
--
0.2000305272109808
0.0016813543147057987
8.766781635692606E-5
1.671218848828202E-4
-8.807196407800423E-9
3.271023680223512E-6
1.82109189465529E-8
